M48
;DRILL file {KiCad (5.0.2)-1} date 2019-04-06 11:49:39 AM
;FORMAT={-:-/ absolute / inch / decimal}
FMAT,2
INCH,TZ
T1C0.0787
T2C0.1220
%
G90
G05
T1
X2.0233Y-4.7594
X2.3698Y-4.7594
T2
X2.0449Y-3.1369
X2.0399Y-3.7819
T0
M30
