G04 #@! TF.GenerationSoftware,KiCad,Pcbnew,(5.0.2)-1*
G04 #@! TF.CreationDate,2019-04-06T11:49:44-05:00*
G04 #@! TF.ProjectId,msp430-training-board,6d737034-3330-42d7-9472-61696e696e67,rev?*
G04 #@! TF.SameCoordinates,Original*
G04 #@! TF.FileFunction,Paste,Top*
G04 #@! TF.FilePolarity,Positive*
%FSLAX46Y46*%
G04 Gerber Fmt 4.6, Leading zero omitted, Abs format (unit mm)*
G04 Created by KiCad (PCBNEW (5.0.2)-1) date 2019-04-06 11:49:44 AM*
%MOMM*%
%LPD*%
G01*
G04 APERTURE LIST*
%ADD10R,1.000000X1.250000*%
%ADD11R,1.250000X1.000000*%
%ADD12R,1.200000X1.200000*%
%ADD13R,1.500000X0.450000*%
%ADD14R,1.500000X0.410000*%
%ADD15R,1.450000X0.450000*%
%ADD16R,1.905000X2.540000*%
G04 APERTURE END LIST*
D10*
G04 #@! TO.C,C1*
X100675482Y-94931891D03*
X98675482Y-94931891D03*
G04 #@! TD*
G04 #@! TO.C,C2*
X100453482Y-84517891D03*
X102453482Y-84517891D03*
G04 #@! TD*
D11*
G04 #@! TO.C,C3*
X112141000Y-91678000D03*
X112141000Y-89678000D03*
G04 #@! TD*
D12*
G04 #@! TO.C,D1*
X136736000Y-115062000D03*
X134536000Y-115062000D03*
G04 #@! TD*
G04 #@! TO.C,D2*
X143553000Y-115062000D03*
X145753000Y-115062000D03*
G04 #@! TD*
G04 #@! TO.C,D3*
X154770000Y-115062000D03*
X152570000Y-115062000D03*
G04 #@! TD*
G04 #@! TO.C,D4*
X161587000Y-115062000D03*
X163787000Y-115062000D03*
G04 #@! TD*
G04 #@! TO.C,D5*
X172804000Y-115062000D03*
X170604000Y-115062000D03*
G04 #@! TD*
G04 #@! TO.C,D6*
X179621000Y-115062000D03*
X181821000Y-115062000D03*
G04 #@! TD*
D13*
G04 #@! TO.C,U2*
X136935000Y-83809000D03*
X136935000Y-83159000D03*
X136935000Y-82509000D03*
X136935000Y-81859000D03*
X136935000Y-81209000D03*
X136935000Y-80559000D03*
X136935000Y-79909000D03*
X136935000Y-79259000D03*
X131035000Y-79259000D03*
X131035000Y-79909000D03*
X131035000Y-80559000D03*
X131035000Y-81209000D03*
X131035000Y-81859000D03*
X131035000Y-82509000D03*
X131035000Y-83159000D03*
X131035000Y-83809000D03*
G04 #@! TD*
D14*
G04 #@! TO.C,U3*
X81088000Y-90805000D03*
X81088000Y-89535000D03*
X81088000Y-88265000D03*
X81088000Y-86995000D03*
X76138000Y-86995000D03*
X76138000Y-88265000D03*
X76138000Y-89535000D03*
X76138000Y-90805000D03*
G04 #@! TD*
D15*
G04 #@! TO.C,U4*
X94644000Y-97286000D03*
X94644000Y-96636000D03*
X94644000Y-95986000D03*
X94644000Y-95336000D03*
X94644000Y-94686000D03*
X94644000Y-94036000D03*
X94644000Y-93386000D03*
X94644000Y-92736000D03*
X94644000Y-92086000D03*
X94644000Y-91436000D03*
X88744000Y-91436000D03*
X88744000Y-92086000D03*
X88744000Y-92736000D03*
X88744000Y-93386000D03*
X88744000Y-94036000D03*
X88744000Y-94686000D03*
X88744000Y-95336000D03*
X88744000Y-95986000D03*
X88744000Y-96636000D03*
X88744000Y-97286000D03*
G04 #@! TD*
D16*
G04 #@! TO.C,Y1*
X100437482Y-91947391D03*
X100437482Y-87756391D03*
G04 #@! TD*
M02*
