EESchema Schematic File Version 4
LIBS:msp430-training-board-cache
EELAYER 26 0
EELAYER END
$Descr A4 11693 8268
encoding utf-8
Sheet 1 2
Title ""
Date ""
Rev ""
Comp ""
Comment1 ""
Comment2 ""
Comment3 ""
Comment4 ""
$EndDescr
$Comp
L Switch:SW_SPST SW3
U 1 1 5C9D0F0C
P 2050 750
F 0 "SW3" H 2050 985 50  0000 C CNN
F 1 "SW_SPST" H 2050 894 50  0000 C CNN
F 2 "Button_Switch_THT:SW_PUSH_6mm" H 2050 750 50  0001 C CNN
F 3 "" H 2050 750 50  0001 C CNN
F 4 "https://www.amazon.com/gp/product/B01N6GU7TA/ref=ox_sc_act_title_2?smid=A1PKXUEVSVVM1&psc=1" H 2050 750 50  0001 C CNN "Supplier Part Number"
	1    2050 750 
	1    0    0    -1  
$EndComp
$Comp
L power:+3V3 #PWR02
U 1 1 5C9D101E
P 1750 750
F 0 "#PWR02" H 1750 600 50  0001 C CNN
F 1 "+3V3" H 1765 923 50  0000 C CNN
F 2 "" H 1750 750 50  0001 C CNN
F 3 "" H 1750 750 50  0001 C CNN
	1    1750 750 
	1    0    0    -1  
$EndComp
Wire Wire Line
	1750 750  1850 750 
$Comp
L solarcar-device:Resistor R2
U 1 1 5C9D105F
P 2400 1000
F 0 "R2" V 2362 1070 50  0000 L CNN
F 1 "10K" H 2350 1000 39  0000 L CNN
F 2 "solarcar-device:Resistor_0805" H 1550 2050 50  0001 C CNN
F 3 "" H 2400 980 50  0001 C CNN
F 4 "Digikey" H 3900 2150 60  0001 C CNN "Supplier"
	1    2400 1000
	0    1    1    0   
$EndComp
Wire Wire Line
	2250 750  2400 750 
Wire Wire Line
	2400 750  2400 800 
$Comp
L power:GND #PWR04
U 1 1 5C9D1108
P 2400 1300
F 0 "#PWR04" H 2400 1050 50  0001 C CNN
F 1 "GND" H 2405 1127 50  0000 C CNN
F 2 "" H 2400 1300 50  0001 C CNN
F 3 "" H 2400 1300 50  0001 C CNN
	1    2400 1300
	1    0    0    -1  
$EndComp
Wire Wire Line
	2400 1300 2400 1200
$Comp
L Switch:SW_SPST SW4
U 1 1 5C9D1170
P 2000 1700
F 0 "SW4" H 2000 1935 50  0000 C CNN
F 1 "SW_SPST" H 2000 1844 50  0000 C CNN
F 2 "Button_Switch_THT:SW_PUSH_6mm" H 2000 1700 50  0001 C CNN
F 3 "" H 2000 1700 50  0001 C CNN
F 4 "https://www.amazon.com/gp/product/B01N6GU7TA/ref=ox_sc_act_title_2?smid=A1PKXUEVSVVM1&psc=1" H 2000 1700 50  0001 C CNN "Supplier Part Number"
	1    2000 1700
	1    0    0    -1  
$EndComp
$Comp
L power:+3V3 #PWR01
U 1 1 5C9D1176
P 1700 1700
F 0 "#PWR01" H 1700 1550 50  0001 C CNN
F 1 "+3V3" H 1715 1873 50  0000 C CNN
F 2 "" H 1700 1700 50  0001 C CNN
F 3 "" H 1700 1700 50  0001 C CNN
	1    1700 1700
	1    0    0    -1  
$EndComp
Wire Wire Line
	1700 1700 1800 1700
$Comp
L solarcar-device:Resistor R1
U 1 1 5C9D117E
P 2350 1950
F 0 "R1" V 2312 2020 50  0000 L CNN
F 1 "10K" H 2300 1950 39  0000 L CNN
F 2 "solarcar-device:Resistor_0805" H 1500 3000 50  0001 C CNN
F 3 "" H 2350 1930 50  0001 C CNN
F 4 "Digikey" H 3850 3100 60  0001 C CNN "Supplier"
	1    2350 1950
	0    1    1    0   
$EndComp
Wire Wire Line
	2200 1700 2350 1700
Wire Wire Line
	2350 1700 2350 1750
$Comp
L power:GND #PWR03
U 1 1 5C9D1186
P 2350 2250
F 0 "#PWR03" H 2350 2000 50  0001 C CNN
F 1 "GND" H 2355 2077 50  0000 C CNN
F 2 "" H 2350 2250 50  0001 C CNN
F 3 "" H 2350 2250 50  0001 C CNN
	1    2350 2250
	1    0    0    -1  
$EndComp
Wire Wire Line
	2350 2250 2350 2150
$Comp
L power:+3.3V #PWR05
U 1 1 5C9D13A6
P 3900 1500
F 0 "#PWR05" H 3900 1350 50  0001 C CNN
F 1 "+3.3V" H 3915 1673 50  0000 C CNN
F 2 "" H 3900 1500 50  0001 C CNN
F 3 "" H 3900 1500 50  0001 C CNN
	1    3900 1500
	1    0    0    -1  
$EndComp
Wire Wire Line
	3900 1500 3900 1600
Wire Wire Line
	3900 1600 4050 1600
$Comp
L power:GND #PWR08
U 1 1 5C9D1445
P 6650 1500
F 0 "#PWR08" H 6650 1250 50  0001 C CNN
F 1 "GND" H 6655 1327 50  0000 C CNN
F 2 "" H 6650 1500 50  0001 C CNN
F 3 "" H 6650 1500 50  0001 C CNN
	1    6650 1500
	-1   0    0    1   
$EndComp
Wire Wire Line
	6650 1500 6650 1600
Wire Wire Line
	6650 1600 6550 1600
$Comp
L power:GND #PWR06
U 1 1 5C9D14FA
P 5150 1100
F 0 "#PWR06" H 5150 850 50  0001 C CNN
F 1 "GND" V 5155 972 50  0000 R CNN
F 2 "" H 5150 1100 50  0001 C CNN
F 3 "" H 5150 1100 50  0001 C CNN
	1    5150 1100
	-1   0    0    1   
$EndComp
$Comp
L power:+5V #PWR07
U 1 1 5C9D15BE
P 5100 1400
F 0 "#PWR07" H 5100 1250 50  0001 C CNN
F 1 "+5V" V 5115 1528 50  0000 L CNN
F 2 "" H 5100 1400 50  0001 C CNN
F 3 "" H 5100 1400 50  0001 C CNN
	1    5100 1400
	1    0    0    -1  
$EndComp
Wire Wire Line
	5100 1600 5050 1600
$Comp
L solarcar-device:LED D1
U 1 1 5C9D1826
P 1950 3800
F 0 "D1" H 1942 3524 59  0000 C CNN
F 1 "LED3" H 1942 3629 59  0000 C CNN
F 2 "solarcar-device:LED_0805" H 1250 4850 50  0001 C CNN
F 3 "" H 1950 3900 50  0001 C CNN
F 4 "Digikey" H 3350 4900 60  0001 C CNN "Supplier"
	1    1950 3800
	-1   0    0    1   
$EndComp
$Comp
L solarcar-device:LED D2
U 1 1 5C9D1A35
P 1950 4250
F 0 "D2" H 1942 3974 59  0000 C CNN
F 1 "LED4" H 1942 4079 59  0000 C CNN
F 2 "solarcar-device:LED_0805" H 1250 5300 50  0001 C CNN
F 3 "" H 1950 4350 50  0001 C CNN
F 4 "Digikey" H 3350 5350 60  0001 C CNN "Supplier"
	1    1950 4250
	-1   0    0    1   
$EndComp
$Comp
L power:GND #PWR09
U 1 1 5C9D1AA4
P 2800 6100
F 0 "#PWR09" H 2800 5850 50  0001 C CNN
F 1 "GND" H 2805 5927 50  0000 C CNN
F 2 "" H 2800 6100 50  0001 C CNN
F 3 "" H 2800 6100 50  0001 C CNN
	1    2800 6100
	1    0    0    -1  
$EndComp
$Comp
L solarcar-device:Resistor R3
U 1 1 5C9D1AC5
P 2450 3800
F 0 "R3" H 2400 3900 50  0000 L CNN
F 1 "300" H 2400 3800 39  0000 L CNN
F 2 "solarcar-device:Resistor_0805" H 1600 4850 50  0001 C CNN
F 3 "" H 2450 3780 50  0001 C CNN
F 4 "Digikey" H 3950 4950 60  0001 C CNN "Supplier"
	1    2450 3800
	-1   0    0    1   
$EndComp
$Comp
L solarcar-device:Resistor R4
U 1 1 5C9D1DA5
P 2450 4250
F 0 "R4" H 2400 4350 50  0000 L CNN
F 1 "300" H 2400 4250 39  0000 L CNN
F 2 "solarcar-device:Resistor_0805" H 1600 5300 50  0001 C CNN
F 3 "" H 2450 4230 50  0001 C CNN
F 4 "Digikey" H 3950 5400 60  0001 C CNN "Supplier"
	1    2450 4250
	-1   0    0    1   
$EndComp
Wire Wire Line
	2650 3800 2800 3800
Wire Wire Line
	2650 4250 2800 4250
Wire Wire Line
	2250 3800 2100 3800
Wire Wire Line
	2250 4250 2100 4250
Text Label 1650 3800 2    50   ~ 0
LED3
Wire Wire Line
	1650 3800 1800 3800
Text Label 1650 4250 2    50   ~ 0
LED4
Wire Wire Line
	1650 4250 1800 4250
Text Label 6600 2500 0    50   ~ 0
LED3
Text Label 6600 2400 0    50   ~ 0
LED4
Text Label 2550 750  0    50   ~ 0
SW3
Wire Wire Line
	2550 750  2400 750 
Connection ~ 2400 750 
Text Label 2550 1700 0    50   ~ 0
SW4
Wire Wire Line
	2550 1700 2350 1700
Connection ~ 2350 1700
Text Label 5500 2000 2    50   ~ 0
SW4
Text Label 5500 1900 2    50   ~ 0
SW3
Connection ~ 2800 4250
Wire Wire Line
	2800 4250 2800 4650
Wire Wire Line
	2800 3800 2800 4250
$Comp
L solarcar-device:LED D3
U 1 1 5C9D7931
P 1950 4650
F 0 "D3" H 1942 4374 59  0000 C CNN
F 1 "LED5" H 1942 4479 59  0000 C CNN
F 2 "solarcar-device:LED_0805" H 1250 5700 50  0001 C CNN
F 3 "" H 1950 4750 50  0001 C CNN
F 4 "Digikey" H 3350 5750 60  0001 C CNN "Supplier"
	1    1950 4650
	-1   0    0    1   
$EndComp
$Comp
L solarcar-device:Resistor R5
U 1 1 5C9D7938
P 2450 4650
F 0 "R5" H 2400 4750 50  0000 L CNN
F 1 "300" H 2400 4650 39  0000 L CNN
F 2 "solarcar-device:Resistor_0805" H 1600 5700 50  0001 C CNN
F 3 "" H 2450 4630 50  0001 C CNN
F 4 "Digikey" H 3950 5800 60  0001 C CNN "Supplier"
	1    2450 4650
	-1   0    0    1   
$EndComp
Wire Wire Line
	2650 4650 2800 4650
Wire Wire Line
	2250 4650 2100 4650
Text Label 1650 4650 2    50   ~ 0
LED5
Wire Wire Line
	1650 4650 1800 4650
Connection ~ 2800 4650
Wire Wire Line
	2800 4650 2800 5050
$Comp
L solarcar-device:LED D4
U 1 1 5C9D83A2
P 1950 5050
F 0 "D4" H 1942 4774 59  0000 C CNN
F 1 "LED6" H 1942 4879 59  0000 C CNN
F 2 "solarcar-device:LED_0805" H 1250 6100 50  0001 C CNN
F 3 "" H 1950 5150 50  0001 C CNN
F 4 "Digikey" H 3350 6150 60  0001 C CNN "Supplier"
	1    1950 5050
	-1   0    0    1   
$EndComp
$Comp
L solarcar-device:Resistor R6
U 1 1 5C9D83AA
P 2450 5050
F 0 "R6" H 2400 5150 50  0000 L CNN
F 1 "300" H 2400 5050 39  0000 L CNN
F 2 "solarcar-device:Resistor_0805" H 1600 6100 50  0001 C CNN
F 3 "" H 2450 5030 50  0001 C CNN
F 4 "Digikey" H 3950 6200 60  0001 C CNN "Supplier"
	1    2450 5050
	-1   0    0    1   
$EndComp
Wire Wire Line
	2650 5050 2800 5050
Wire Wire Line
	2250 5050 2100 5050
Text Label 1650 5050 2    50   ~ 0
LED6
Wire Wire Line
	1650 5050 1800 5050
$Comp
L solarcar-device:LED D5
U 1 1 5C9D8A40
P 1950 5450
F 0 "D5" H 1942 5174 59  0000 C CNN
F 1 "LED7" H 1942 5279 59  0000 C CNN
F 2 "solarcar-device:LED_0805" H 1250 6500 50  0001 C CNN
F 3 "" H 1950 5550 50  0001 C CNN
F 4 "Digikey" H 3350 6550 60  0001 C CNN "Supplier"
	1    1950 5450
	-1   0    0    1   
$EndComp
$Comp
L solarcar-device:Resistor R7
U 1 1 5C9D8A48
P 2450 5450
F 0 "R7" H 2400 5550 50  0000 L CNN
F 1 "300" H 2400 5450 39  0000 L CNN
F 2 "solarcar-device:Resistor_0805" H 1600 6500 50  0001 C CNN
F 3 "" H 2450 5430 50  0001 C CNN
F 4 "Digikey" H 3950 6600 60  0001 C CNN "Supplier"
	1    2450 5450
	-1   0    0    1   
$EndComp
Wire Wire Line
	2650 5450 2800 5450
Wire Wire Line
	2250 5450 2100 5450
Text Label 1650 5450 2    50   ~ 0
LED7
Wire Wire Line
	1650 5450 1800 5450
Connection ~ 2800 5050
Wire Wire Line
	2800 5050 2800 5450
Connection ~ 2800 5450
Wire Wire Line
	2800 5450 2800 6100
$Comp
L solarcar-device:LED D6
U 1 1 5C9DA6A2
P 1950 5900
F 0 "D6" H 1942 5624 59  0000 C CNN
F 1 "LED8" H 1942 5729 59  0000 C CNN
F 2 "solarcar-device:LED_0805" H 1250 6950 50  0001 C CNN
F 3 "" H 1950 6000 50  0001 C CNN
F 4 "Digikey" H 3350 7000 60  0001 C CNN "Supplier"
	1    1950 5900
	-1   0    0    1   
$EndComp
$Comp
L solarcar-device:Resistor R8
U 1 1 5C9DA6AA
P 2450 5900
F 0 "R8" H 2400 6000 50  0000 L CNN
F 1 "300" H 2400 5900 39  0000 L CNN
F 2 "solarcar-device:Resistor_0805" H 1600 6950 50  0001 C CNN
F 3 "" H 2450 5880 50  0001 C CNN
F 4 "Digikey" H 3950 7050 60  0001 C CNN "Supplier"
	1    2450 5900
	-1   0    0    1   
$EndComp
Wire Wire Line
	2650 5900 2800 5900
Wire Wire Line
	2250 5900 2100 5900
Text Label 1650 5900 2    50   ~ 0
LED8
Wire Wire Line
	1650 5900 1800 5900
Text Label 6600 2200 0    50   ~ 0
LED5
Text Label 6600 2100 0    50   ~ 0
LED6
Text Label 6600 1900 0    50   ~ 0
LED7
Text Label 6600 1800 0    50   ~ 0
LED8
$Comp
L Switch:SW_SPST SW5
U 1 1 5C9E47E7
P 2000 2650
F 0 "SW5" H 2000 2885 50  0000 C CNN
F 1 "SW_SPST" H 2000 2794 50  0000 C CNN
F 2 "Button_Switch_THT:SW_PUSH_6mm" H 2000 2650 50  0001 C CNN
F 3 "" H 2000 2650 50  0001 C CNN
F 4 "https://www.amazon.com/gp/product/B01N6GU7TA/ref=ox_sc_act_title_2?smid=A1PKXUEVSVVM1&psc=1" H 2000 2650 50  0001 C CNN "Supplier Part Number"
	1    2000 2650
	1    0    0    -1  
$EndComp
$Comp
L power:+3V3 #PWR010
U 1 1 5C9E47ED
P 1700 2650
F 0 "#PWR010" H 1700 2500 50  0001 C CNN
F 1 "+3V3" H 1715 2823 50  0000 C CNN
F 2 "" H 1700 2650 50  0001 C CNN
F 3 "" H 1700 2650 50  0001 C CNN
	1    1700 2650
	1    0    0    -1  
$EndComp
Wire Wire Line
	1700 2650 1800 2650
$Comp
L solarcar-device:Resistor R9
U 1 1 5C9E47F5
P 2350 2900
F 0 "R9" V 2312 2970 50  0000 L CNN
F 1 "10K" H 2300 2900 39  0000 L CNN
F 2 "solarcar-device:Resistor_0805" H 1500 3950 50  0001 C CNN
F 3 "" H 2350 2880 50  0001 C CNN
F 4 "Digikey" H 3850 4050 60  0001 C CNN "Supplier"
	1    2350 2900
	0    1    1    0   
$EndComp
Wire Wire Line
	2200 2650 2350 2650
Wire Wire Line
	2350 2650 2350 2700
$Comp
L power:GND #PWR011
U 1 1 5C9E47FD
P 2350 3200
F 0 "#PWR011" H 2350 2950 50  0001 C CNN
F 1 "GND" H 2355 3027 50  0000 C CNN
F 2 "" H 2350 3200 50  0001 C CNN
F 3 "" H 2350 3200 50  0001 C CNN
	1    2350 3200
	1    0    0    -1  
$EndComp
Wire Wire Line
	2350 3200 2350 3100
Text Label 2550 2650 0    50   ~ 0
SW5
Wire Wire Line
	2550 2650 2350 2650
Connection ~ 2350 2650
Text Label 5500 2100 2    50   ~ 0
SW5
$Comp
L Device:Buzzer BZ1
U 1 1 5C9E8CA5
P 8200 1350
F 0 "BZ1" H 8353 1379 50  0000 L CNN
F 1 "Buzzer" H 8353 1288 50  0000 L CNN
F 2 "Buzzer_Beeper:Buzzer_12x9.5RM7.6" V 8175 1450 50  0001 C CNN
F 3 "~" V 8175 1450 50  0001 C CNN
F 4 "445-2525-1-ND" H 8200 1350 50  0001 C CNN "Supplier Part Number"
	1    8200 1350
	1    0    0    -1  
$EndComp
$Comp
L power:GND #PWR012
U 1 1 5C9E9165
P 7950 1500
F 0 "#PWR012" H 7950 1250 50  0001 C CNN
F 1 "GND" H 7955 1327 50  0000 C CNN
F 2 "" H 7950 1500 50  0001 C CNN
F 3 "" H 7950 1500 50  0001 C CNN
	1    7950 1500
	1    0    0    -1  
$EndComp
Wire Wire Line
	7950 1500 7950 1450
Wire Wire Line
	7950 1450 8100 1450
Text Label 7500 1250 2    50   ~ 0
BUZZER
Wire Wire Line
	7950 1250 8100 1250
Text Label 6600 1700 0    50   ~ 0
BUZZER
$Comp
L solarcar-misc:7-Segment-Display D7
U 1 1 5C9EDD1F
P 10050 3050
F 0 "D7" H 10050 3591 39  0000 C CNN
F 1 "7-Segment-Display" H 10050 3516 39  0000 C CNN
F 2 "solarcar-misc:7SEG_1in" H 11100 3950 39  0001 C CNN
F 3 "https://www.amazon.com/uxcell-Cathode-Segment-Display-Digital/dp/B07GTS2WW2/ref=sr_1_3?keywords=7-segment+1%22&qid=1554566703&s=gateway&sr=8-3" H 8450 3950 39  0001 C CNN
F 4 "Digikey" H 8350 3650 39  0001 C CNN "Supplier"
F 5 "https://www.amazon.com/uxcell-Cathode-Segment-Display-Digital/dp/B07GTS2WW2/ref=sr_1_3?keywords=7-segment+1%22&qid=1554566703&s=gateway&sr=8-3" H 8350 3550 39  0001 C CNN "Supplier Part Number"
	1    10050 3050
	1    0    0    -1  
$EndComp
$Comp
L power:GND #PWR017
U 1 1 5C9EDDA6
P 10700 2700
F 0 "#PWR017" H 10700 2450 50  0001 C CNN
F 1 "GND" H 10705 2527 50  0000 C CNN
F 2 "" H 10700 2700 50  0001 C CNN
F 3 "" H 10700 2700 50  0001 C CNN
	1    10700 2700
	-1   0    0    1   
$EndComp
Wire Wire Line
	10700 2700 10700 2750
Wire Wire Line
	10700 2750 10600 2750
Wire Wire Line
	10700 2750 10700 2850
Wire Wire Line
	10700 2850 10600 2850
Connection ~ 10700 2750
Wire Wire Line
	10600 2850 10600 2830
Connection ~ 10600 2830
Wire Wire Line
	10600 2830 10600 2825
$Comp
L 74xx:74HC595 U2
U 1 1 5C9F18B5
P 8600 3150
F 0 "U2" H 8750 2400 50  0000 C CNN
F 1 "74HC595" H 8300 2400 50  0000 C CNN
F 2 "Package_SO:TSSOP-16_4.4x5mm_P0.65mm" H 8600 3150 50  0001 C CNN
F 3 "http://www.ti.com/lit/ds/symlink/sn74hc595.pdf" H 8600 3150 50  0001 C CNN
F 4 "MC74HC595ADTR2GOSCT-ND " H 8600 3150 50  0001 C CNN "Supplier Part Number"
	1    8600 3150
	1    0    0    -1  
$EndComp
Wire Wire Line
	9000 2750 9050 2750
Wire Wire Line
	9000 2850 9050 2850
Wire Wire Line
	9000 2950 9050 2950
Wire Wire Line
	9000 3050 9050 3050
Wire Wire Line
	9000 3150 9050 3150
Wire Wire Line
	9000 3250 9050 3250
Wire Wire Line
	9000 3350 9050 3350
$Comp
L power:GND #PWR016
U 1 1 5C9FED32
P 8600 4000
F 0 "#PWR016" H 8600 3750 50  0001 C CNN
F 1 "GND" H 8605 3827 50  0000 C CNN
F 2 "" H 8600 4000 50  0001 C CNN
F 3 "" H 8600 4000 50  0001 C CNN
	1    8600 4000
	1    0    0    -1  
$EndComp
Wire Wire Line
	8600 4000 8600 3850
$Comp
L power:+5V #PWR015
U 1 1 5CA006FB
P 8600 2450
F 0 "#PWR015" H 8600 2300 50  0001 C CNN
F 1 "+5V" H 8615 2623 50  0000 C CNN
F 2 "" H 8600 2450 50  0001 C CNN
F 3 "" H 8600 2450 50  0001 C CNN
	1    8600 2450
	1    0    0    -1  
$EndComp
Wire Wire Line
	8600 2450 8600 2550
$Comp
L power:GND #PWR013
U 1 1 5CA02006
P 8050 3400
F 0 "#PWR013" H 8050 3150 50  0001 C CNN
F 1 "GND" H 8055 3227 50  0000 C CNN
F 2 "" H 8050 3400 50  0001 C CNN
F 3 "" H 8050 3400 50  0001 C CNN
	1    8050 3400
	1    0    0    -1  
$EndComp
Wire Wire Line
	8050 3400 8050 3350
Wire Wire Line
	8050 3350 8200 3350
$Comp
L power:+5V #PWR014
U 1 1 5CA03BAE
P 8100 3050
F 0 "#PWR014" H 8100 2900 50  0001 C CNN
F 1 "+5V" V 8115 3178 50  0000 L CNN
F 2 "" H 8100 3050 50  0001 C CNN
F 3 "" H 8100 3050 50  0001 C CNN
	1    8100 3050
	0    -1   -1   0   
$EndComp
Wire Wire Line
	8100 3050 8200 3050
Text Label 8150 3250 2    50   ~ 0
SHIFT_LATCH
Wire Wire Line
	8150 3250 8200 3250
Text Label 8150 2950 2    50   ~ 0
SHIFT_CLOCK
Wire Wire Line
	8150 2950 8200 2950
Text Label 8100 2750 2    50   ~ 0
SHIFT_DATA
Wire Wire Line
	8100 2750 8200 2750
Wire Wire Line
	6600 1700 6550 1700
Wire Wire Line
	6600 1900 6550 1900
Wire Wire Line
	6600 1800 6550 1800
Text Label 5650 1400 0    50   ~ 0
SHIFT_LATCH
Text Label 5650 1300 0    50   ~ 0
SHIFT_CLOCK
Text Label 5650 1200 0    50   ~ 0
SHIFT_DATA
Text Label 5650 2650 0    50   ~ 0
CAN_CS
Text Label 6600 2300 0    50   ~ 0
CAN_INT
Wire Wire Line
	6600 2300 6550 2300
Text Label 5650 2750 0    50   ~ 0
CAN_SCK
Text Label 4000 2400 2    50   ~ 0
CAN_MISO
Wire Wire Line
	4000 2400 4050 2400
Text Label 4000 2500 2    50   ~ 0
CAN_MOSI
Wire Wire Line
	4000 2500 4050 2500
$Sheet
S 5550 3450 700  850 
U 5CA8E929
F0 "CAN Bus" 50
F1 "CAN_Bus.sch" 50
F2 "MOSI" I L 5550 3550 50 
F3 "MISO" I L 5550 3700 50 
F4 "~CS" I L 5550 3850 50 
F5 "SCK" I L 5550 4000 50 
F6 "~CAN_INT" O L 5550 4150 50 
$EndSheet
Text Label 5300 4000 2    50   ~ 0
CAN_SCK
Wire Wire Line
	5300 4000 5550 4000
Text Label 5300 4150 2    50   ~ 0
CAN_INT
Wire Wire Line
	5300 4150 5550 4150
Text Label 5300 3700 2    50   ~ 0
CAN_MISO
Wire Wire Line
	5300 3700 5550 3700
Wire Wire Line
	5300 3550 5550 3550
Text Label 5300 3850 2    50   ~ 0
CAN_CS
Wire Wire Line
	5300 3850 5550 3850
Text Label 5300 3550 2    50   ~ 0
CAN_MOSI
$Comp
L Device:R_POT RV1
U 1 1 5CAB66B9
P 3700 3450
F 0 "RV1" H 3630 3496 50  0000 R CNN
F 1 "POT1" H 3630 3405 50  0000 R CNN
F 2 "Potentiometer_THT:Potentiometer_Bourns_PTV09A-1_Single_Vertical" H 3700 3450 50  0001 C CNN
F 3 "~" H 3700 3450 50  0001 C CNN
F 4 "DigiKey" H 3700 3450 50  0001 C CNN "Supplier"
F 5 "PTV09A-4020F-B103-ND " H 3700 3450 50  0001 C CNN "Supplier Part Number"
	1    3700 3450
	1    0    0    -1  
$EndComp
$Comp
L power:+3V3 #PWR031
U 1 1 5CAB69C1
P 3700 3200
F 0 "#PWR031" H 3700 3050 50  0001 C CNN
F 1 "+3V3" H 3715 3373 50  0000 C CNN
F 2 "" H 3700 3200 50  0001 C CNN
F 3 "" H 3700 3200 50  0001 C CNN
	1    3700 3200
	1    0    0    -1  
$EndComp
Wire Wire Line
	3700 3200 3700 3300
$Comp
L power:GND #PWR032
U 1 1 5CAB98EF
P 3700 3750
F 0 "#PWR032" H 3700 3500 50  0001 C CNN
F 1 "GND" H 3705 3577 50  0000 C CNN
F 2 "" H 3700 3750 50  0001 C CNN
F 3 "" H 3700 3750 50  0001 C CNN
	1    3700 3750
	1    0    0    -1  
$EndComp
Wire Wire Line
	3700 3750 3700 3600
Text Label 4000 3450 0    50   ~ 0
POT1
Wire Wire Line
	4000 3450 3850 3450
Text Label 5100 1900 0    50   ~ 0
POT1
Wire Wire Line
	5100 1900 5050 1900
Wire Wire Line
	5500 1600 5550 1600
Wire Wire Line
	6600 2100 6550 2100
Wire Wire Line
	6600 2200 6550 2200
Wire Wire Line
	6600 2400 6550 2400
Wire Wire Line
	6600 2500 6550 2500
Wire Wire Line
	5100 1400 5100 1600
Wire Wire Line
	5150 1100 5150 1700
Wire Wire Line
	5050 1700 5150 1700
$Comp
L solarcar-microcontrollers:Launchpad U1
U 1 1 5C9D12EA
P 5000 2200
F 0 "U1" H 4700 2900 50  0000 C CNN
F 1 "Launchpad" H 5850 2900 50  0000 C CNN
F 2 "solarcar-microcontrollers:MSP430-Launchpad" H 5050 2200 50  0001 C CNN
F 3 "" H 5050 2200 50  0001 C CNN
F 4 "296-36506-ND " H 5000 2200 50  0001 C CNN "Supplier Part Number"
	1    5000 2200
	1    0    0    -1  
$EndComp
Wire Wire Line
	5500 1900 5550 1900
$Comp
L solarcar-device:Resistor R10
U 1 1 5CB49DF9
P 7750 1250
F 0 "R10" H 7750 1350 50  0000 C CNN
F 1 "1K" H 7750 1250 39  0000 C CNN
F 2 "solarcar-device:Resistor_0805" H 6900 2300 50  0001 C CNN
F 3 "" H 7750 1230 50  0001 C CNN
F 4 "Digikey" H 9250 2400 60  0001 C CNN "Supplier"
	1    7750 1250
	1    0    0    -1  
$EndComp
Wire Wire Line
	7500 1250 7550 1250
Wire Wire Line
	5650 2750 5450 2750
Wire Wire Line
	5450 2750 5450 2200
Wire Wire Line
	5450 2200 5550 2200
Wire Wire Line
	5500 2000 5550 2000
Wire Wire Line
	5500 2100 5550 2100
Wire Wire Line
	5650 2650 5500 2650
Wire Wire Line
	5500 2650 5500 2300
Wire Wire Line
	5500 2300 5550 2300
Wire Wire Line
	5650 1400 5500 1400
Wire Wire Line
	5500 1400 5500 1600
Wire Wire Line
	5650 1300 5450 1300
Wire Wire Line
	5450 1300 5450 1700
Wire Wire Line
	5450 1700 5550 1700
Wire Wire Line
	5650 1200 5400 1200
Wire Wire Line
	5400 1200 5400 1800
Wire Wire Line
	5400 1800 5550 1800
$Comp
L solarcar-device:Resistor R11
U 1 1 5CB801C5
P 9250 2750
F 0 "R11" H 9400 2700 50  0000 C CNN
F 1 "100" H 9250 2750 39  0000 C CNN
F 2 "solarcar-device:Resistor_0805" H 8400 3800 50  0001 C CNN
F 3 "" H 9250 2730 50  0001 C CNN
F 4 "Digikey" H 10750 3900 60  0001 C CNN "Supplier"
	1    9250 2750
	1    0    0    -1  
$EndComp
$Comp
L solarcar-device:Resistor R12
U 1 1 5CB83DD0
P 9250 2850
F 0 "R12" H 9400 2800 50  0000 C CNN
F 1 "100" H 9250 2850 39  0000 C CNN
F 2 "solarcar-device:Resistor_0805" H 8400 3900 50  0001 C CNN
F 3 "" H 9250 2830 50  0001 C CNN
F 4 "Digikey" H 10750 4000 60  0001 C CNN "Supplier"
	1    9250 2850
	1    0    0    -1  
$EndComp
$Comp
L solarcar-device:Resistor R13
U 1 1 5CB84016
P 9250 2950
F 0 "R13" H 9400 2900 50  0000 C CNN
F 1 "100" H 9250 2950 39  0000 C CNN
F 2 "solarcar-device:Resistor_0805" H 8400 4000 50  0001 C CNN
F 3 "" H 9250 2930 50  0001 C CNN
F 4 "Digikey" H 10750 4100 60  0001 C CNN "Supplier"
	1    9250 2950
	1    0    0    -1  
$EndComp
$Comp
L solarcar-device:Resistor R14
U 1 1 5CB84064
P 9250 3050
F 0 "R14" H 9400 3000 50  0000 C CNN
F 1 "100" H 9250 3050 39  0000 C CNN
F 2 "solarcar-device:Resistor_0805" H 8400 4100 50  0001 C CNN
F 3 "" H 9250 3030 50  0001 C CNN
F 4 "Digikey" H 10750 4200 60  0001 C CNN "Supplier"
	1    9250 3050
	1    0    0    -1  
$EndComp
$Comp
L solarcar-device:Resistor R15
U 1 1 5CB840AE
P 9250 3150
F 0 "R15" H 9400 3100 50  0000 C CNN
F 1 "100" H 9250 3150 39  0000 C CNN
F 2 "solarcar-device:Resistor_0805" H 8400 4200 50  0001 C CNN
F 3 "" H 9250 3130 50  0001 C CNN
F 4 "Digikey" H 10750 4300 60  0001 C CNN "Supplier"
	1    9250 3150
	1    0    0    -1  
$EndComp
$Comp
L solarcar-device:Resistor R16
U 1 1 5CB840FA
P 9250 3250
F 0 "R16" H 9400 3200 50  0000 C CNN
F 1 "100" H 9250 3250 39  0000 C CNN
F 2 "solarcar-device:Resistor_0805" H 8400 4300 50  0001 C CNN
F 3 "" H 9250 3230 50  0001 C CNN
F 4 "Digikey" H 10750 4400 60  0001 C CNN "Supplier"
	1    9250 3250
	1    0    0    -1  
$EndComp
$Comp
L solarcar-device:Resistor R17
U 1 1 5CB84148
P 9250 3350
F 0 "R17" H 9400 3300 50  0000 C CNN
F 1 "100" H 9250 3350 39  0000 C CNN
F 2 "solarcar-device:Resistor_0805" H 8400 4400 50  0001 C CNN
F 3 "" H 9250 3330 50  0001 C CNN
F 4 "Digikey" H 10750 4500 60  0001 C CNN "Supplier"
	1    9250 3350
	1    0    0    -1  
$EndComp
$Comp
L solarcar-device:Resistor R18
U 1 1 5CB8419C
P 9250 3450
F 0 "R18" H 9400 3400 50  0000 C CNN
F 1 "100" H 9250 3450 39  0000 C CNN
F 2 "solarcar-device:Resistor_0805" H 8400 4500 50  0001 C CNN
F 3 "" H 9250 3430 50  0001 C CNN
F 4 "Digikey" H 10750 4600 60  0001 C CNN "Supplier"
	1    9250 3450
	1    0    0    -1  
$EndComp
Wire Wire Line
	9050 3450 9000 3450
Wire Wire Line
	9450 2750 9500 2750
Wire Wire Line
	9500 2850 9450 2850
Wire Wire Line
	9450 2950 9500 2950
Wire Wire Line
	9500 3050 9450 3050
Wire Wire Line
	9450 3150 9500 3150
Wire Wire Line
	9500 3250 9450 3250
Wire Wire Line
	9450 3350 9500 3350
Wire Wire Line
	9450 3450 9600 3450
Wire Wire Line
	9600 3450 9600 3500
Wire Wire Line
	9600 3500 10700 3500
Wire Wire Line
	10700 3500 10700 3350
Wire Wire Line
	10700 3350 10600 3350
$EndSCHEMATC
